{
  "app": {
    "facebook": {
      "title": "Facebook"
    },
    "google": {
      "title": "Google"
    }
  },
  "appName": "Getgram",
  "confirm": {
    "areSureToLeave": "Are you sure you want to leave?"
  },
  "error": {
    "code": {
      "notFound": "404"
    },
    "message": {
      "argumentError": "Wrong user credentials",
      "default": "Something went wrong, please try again later. If the problem persist contact with us please.",
      "displayNameLength": "Your name cannot be short or empty, use at least 6 characters",
      "emailAreadyInUse": "This email is already in use",
      "fileNotFound": "Could not found file",
      "invalidEmail": "Email is invalid",
      "nicknameAlready": "Nickname is already taken",
      "nicknameLength": "Nickname length is too short",
      "noFile": "File uploading error",
      "notEnoughForm": "Fill all required fields",
      "notInstagramUrl": "Give a valid Instagram url <br>\n\n<b>Note:</b> The profile links are invalid",
      "passwordLength": "The password must be at least 6 characters length",
      "passwordMismatch": "The passwords dosen't match",
      "popupCancelled": "The popup has been closed before finalizing the login, please try again",
      "popupClosedByUser": "The popup has been closed before finalizing the login, please try again",
      "tooManyRequest": "Too many unsuccessful login attempts.  Please try again later",
      "urlEmpty": "The url field is empty",
      "wrongInstaSource": "Post unreachable, you may give a profile URL, the source is not longer avaible or the post is private",
      "wrongPassword": "The password is invalid"
    }
  },
  "event": {
    "pause": "Paused",
    "play": "Playing"
  },
  "input": {
    "confirmPassword": "Confirm password",
    "displayName": "Display name",
    "email": "Email",
    "feedbackComment": {
      "label": "Add your comments about the report",
      "placeholder": "Write something"
    },
    "feedbackSelect": {
      "choose": "Select an option",
      "copyright": "This file belongs to me",
      "hi": "Just to say hi",
      "label": "Report reason",
      "other": "Other",
      "underaged": "Underaged explcit content"
    },
    "files": "Select or drop here your files",
    "instaUrl": "Paste here your Instagram link",
    "message": "Send message",
    "nickname": "Nickname",
    "onlyLeader": {
      "label": "Room leader",
      "off": "Anybody can control the room",
      "on": "Only you can control the room"
    },
    "password": "Password",
    "title": "Title",
    "updateDisplayName": "Change display name",
    "updateEmail": "Change email",
    "user": "User",
    "videoSource": "Video URL or ID"
  },
  "label": {
    "anon": "Anon",
    "searchedUrl": "Searched url",
    "selectSource": "Select video source"
  },
  "link": {
    "forgot": "Forgot your password?",
    "login": "Already have an account?",
    "register": "Register"
  },
  "message": "Hi world",
  "mime": {
    "image": "Image",
    "photo": "Picture",
    "video": "Video"
  },
  "modal": {
    "adBlock": {
      "content": "You should disable AdBlock on this site please, then reload the page",
      "title": "AdBlock detected"
    },
    "addRoom": {
      "title": "Create room"
    },
    "addVideo": {
      "title": "Add video"
    },
    "deleteAccount": {
      "content": "All your rooms and info will be deleted permanently",
      "title": "Are you sure to delete your account?"
    },
    "deleteRoom": {
      "body": "Are you sure that you want to delete this room?",
      "cancelTitle": "Cancel",
      "okTitle": "Delete",
      "title": "Delete room"
    },
    "flag": {
      "content": "Send this file to be reviewed. If you only want to give feedback you can do it directly with me in Twitter, Facebook or email.",
      "title": "Flag this file"
    },
    "reLogin": {
      "title": "You need to re-authenticate your sesssion"
    }
  },
  "navbar": {
    "about": "About",
    "lang": "Language",
    "logout": "Sign out",
    "settings": "Settings"
  },
  "page": {
    "about": {
      "main": "Download photos and videos from Instagram posts, Enjoy :)",
      "supportUs": "Help with updates!",
      "title": "About Getgram"
    },
    "forgot": {
      "title": "Recover your password"
    },
    "landing": {
      "main": "Paste your instagram post link, search and you'll get the images and videos from that publication so you can download them"
    },
    "notFound": {
      "subTitle": "Page not found",
      "title": "404"
    },
    "register": {
      "title": "Sign up"
    }
  },
  "test": "Test",
  "toast": {
    "couldntLoadRoom": "Room is taking so much loading, check your connection",
    "feedFail": {
      "reason": {
        "content": "You need a reason to send your report",
        "title": "Form incomplete"
      }
    },
    "feedSuccess": {
      "content": "After analyzing your report, I will proceed according to the situation. Thank you very much",
      "title": "Your report has been sent"
    },
    "invalidMessage": "Your was not send",
    "invalidSource": "Please provide a valid URL or ID",
    "urlCopied": "Link copied"
  },
  "tooltip": {
    "flag": "Report this file"
  },
  "value": {
    "addRoom": "Create room",
    "addToPlaylist": "Add to playlist",
    "browse": "Search files",
    "deleteAccount": "Delete account",
    "disableAdBlock": "Disable AdBlock to get the download button",
    "download": "Download",
    "login": "Log in",
    "no": "No",
    "reAuth": "Re auth",
    "refresh": "Refresh",
    "register": "Register",
    "saveProfile": "Save profile",
    "saveSecurity": "Save config",
    "search": "Search",
    "searching": "Searching",
    "send": "Send",
    "upload": "Upload",
    "yes": "Yes"
  }
}
